Compare a settings object with a specified data set — validateSettings • safetyGraphics
…
"valid" - boolean indicating whether the check was passed

"message" - string describing failed checks (where `valid=FALSE`). returns an empty string when `valid==TRUE`

    Details

    This function returns a list describing the validation status of a settings/data combo for a given chart type. This list can be used to populate status fields and control workflow in the Shiny app. It could also be used to manually QC a buggy chart. The tool checks that all setting properties containing "_col" match columns in the data set via checkColumnSettings,  and all properties containing "_values" match fields in the data set via checkFieldSettings.

    Examples

testSettings <- generateSettings(standard="adam")
validateSettings(data=adlbc, settings=testSettings)
#> $checks
#> # A tibble: 33 x 7
#>    key     text_key     type   description           value         valid message
#>    <list>  <chr>        <chr>  <chr>                 <chr>         <lgl> <chr>  
#>  1 <list … id_col       requi… value for specified … USUBJID       TRUE  ""     
#>  2 <list … value_col    requi… value for specified … AVAL          TRUE  ""     
#>  3 <list … measure_col  requi… value for specified … PARAM         TRUE  ""     
#>  4 <list … measure_val… requi… value for specified … Alanine Amin… TRUE  ""     
#>  5 <list … measure_val… requi… value for specified … Aspartate Am… TRUE  ""     
#>  6 <list … measure_val… requi… value for specified … Bilirubin (u… TRUE  ""     
#>  7 <list … measure_val… requi… value for specified … Alkaline Pho… TRUE  ""     
#>  8 <list … normal_col_… requi… value for specified … A1LO          TRUE  ""     
#>  9 <list … normal_col_… requi… value for specified … A1HI          TRUE  ""     
#> 10 <list … studyday_col requi… value for specified … ADY           TRUE  ""     
#> # … with 23 more rows
…
#> $charts$paneledoutlierexplorer
#> [1] TRUE
#> 
#> $charts$safetydeltadelta
#> [1] TRUE
#> 
#> 
#> $status
#> [1] "0 of 33 checks failed."
#> 
# .$valid is TRUE
testSettings$id_col <- "NotAColumn"
validateSettings(data=adlbc, settings=testSettings)
#> $checks
#> # A tibble: 33 x 7
#>    key     text_key     type   description           value         valid message
#>    <list>  <chr>        <chr>  <chr>                 <chr>         <lgl> <chr>  
#>  1 <list … id_col       requi… value for specified … NotAColumn    TRUE  ""     
#>  2 <list … value_col    requi… value for specified … AVAL          TRUE  ""     
#>  3 <list … measure_col  requi… value for specified … PARAM         TRUE  ""     
#>  4 <list … measure_val… requi… value for specified … Alanine Amin… TRUE  ""     
#>  5 <list … measure_val… requi… value for specified … Aspartate Am… TRUE  ""     
#>  6 <list … measure_val… requi… value for specified … Bilirubin (u… TRUE  ""     
#>  7 <list … measure_val… requi… value for specified … Alkaline Pho… TRUE  ""     
#>  8 <list … normal_col_… requi… value for specified … A1LO          TRUE  ""     
#>  9 <list … normal_col_… requi… value for specified … A1HI          TRUE  ""     
#> 10 <list … studyday_col requi… value for specified … ADY           TRUE  ""     
#> # … with 23 more rows
…
